<svg xmlns="http://www.w3.org/2000/svg" width="32.719" height="32.719" viewBox="0 0 32.719 32.719">
  <g id="Group_156" data-name="Group 156" transform="translate(480.983 -846.202)">
    <circle id="Ellipse_23" data-name="Ellipse 23" cx="11.258" cy="11.258" r="11.258" transform="translate(-475.881 851.304)" fill="none" stroke="#fff" stroke-miterlimit="10" stroke-width="3"/>
    <circle id="Ellipse_24" data-name="Ellipse 24" cx="5.881" cy="5.881" r="5.881" transform="translate(-470.698 856.882) rotate(-1.919)" fill="#fff"/>
    <line id="Line_19" data-name="Line 19" y1="5.102" transform="translate(-464.624 846.202)" fill="none" stroke="#fff" stroke-miterlimit="10" stroke-width="3"/>
    <line id="Line_20" data-name="Line 20" y1="5.102" transform="translate(-464.624 873.82)" fill="none" stroke="#fff" stroke-miterlimit="10" stroke-width="3"/>
    <line id="Line_21" data-name="Line 21" x1="5.102" transform="translate(-480.983 862.562)" fill="none" stroke="#fff" stroke-miterlimit="10" stroke-width="3"/>
    <line id="Line_22" data-name="Line 22" x1="5.102" transform="translate(-453.366 862.562)" fill="none" stroke="#fff" stroke-miterlimit="10" stroke-width="3"/>
  </g>
</svg>
