<svg xmlns="http://www.w3.org/2000/svg" width="40" height="40" viewBox="0 0 40 40">
  <g id="Group_4614" data-name="Group 4614" transform="translate(-593.408 -752.408)">
    <rect id="Rectangle_206" data-name="Rectangle 206" width="28.284" height="28.284" rx="2" transform="translate(593.408 772.408) rotate(-45)" fill="#db4545"/>
    <g id="Group_4611" data-name="Group 4611" transform="translate(525.215 762.212)">
      <path id="Path_21642" data-name="Path 21642" d="M97.312,359.709a.616.616,0,0,0-.616.616v.534a.615.615,0,0,0,.18.435l1.79,1.79v1.02a.616.616,0,0,0,.616.616h7.883a.616.616,0,0,0,.616-.616v-1.02l1.79-1.79a.616.616,0,0,0,.18-.435v-.534a.616.616,0,0,0-.616-.616Z" transform="translate(-15.381 -344.969)" fill="#fff"/>
      <path id="Path_21643" data-name="Path 21643" d="M95,11.327A3.614,3.614,0,0,0,92.563,8.9,5.894,5.894,0,0,0,90.8,8.581h-.833l-.182-.729a3.241,3.241,0,0,0,1.3-2.6V4.281l-.036-1.52a3.244,3.244,0,0,0-6-1.166,2.365,2.365,0,0,0-.422,1.223A21.631,21.631,0,0,0,84.6,5.256a3.241,3.241,0,0,0,1.3,2.6l-.182.729h-.833a5.894,5.894,0,0,0-1.764.322,3.614,3.614,0,0,0-2.442,2.424.616.616,0,0,0,.592.785h0a2.4,2.4,0,0,1,1.333.342,1.561,1.561,0,0,1,.626,1.054h9.221a1.561,1.561,0,0,1,.626-1.054,2.4,2.4,0,0,1,1.333-.342A.616.616,0,0,0,95,11.327Z" transform="translate(0 0)" fill="#fff"/>
    </g>
  </g>
</svg>
