<?xml version="1.0" encoding="utf-8"?>
<!-- Generator: Adobe Illustrator 25.1.0, SVG Export Plug-In . SVG Version: 6.00 Build 0)  -->
<svg version="1.1" id="Layer_1" xmlns="http://www.w3.org/2000/svg" xmlns:xlink="http://www.w3.org/1999/xlink" x="0px" y="0px"
	 viewBox="0 0 500 500" style="enable-background:new 0 0 500 500;" xml:space="preserve">
<style type="text/css">
	.st0{fill:#FFFFFF;}
</style>
<g transform="translate(0)">
	<path class="st0" d="M100.3,371.8c-8.6,0-15.5,7-15.5,15.5v13.5c0,4.1,1.6,8.1,4.5,11l45.2,45.2v25.7c0,8.6,7,15.5,15.5,15.5h198.9
		c8.6,0,15.5-7,15.5-15.5V457l45.2-45.2c2.9-2.9,4.5-6.9,4.5-11v-13.5c0-8.6-7-15.5-15.5-15.5H100.3z"/>
	<path class="st0" d="M430.1,285.8c-8.9-29.5-32.1-52.5-61.6-61.2c-14.3-4.9-29.3-7.7-44.4-8.1h-21l-4.6-18.4
		c20.7-15.4,32.9-39.7,32.9-65.5V108l-1-38.2c-6.7-44.7-48.3-75.5-93-68.9C213,4.5,191.5,19,179,40.2c-6.3,9.1-10,19.8-10.6,30.8
		c-1.4,20.5-1.6,41-0.7,61.5c0,25.8,12.2,50.1,32.9,65.5l-4.6,18.4h-21c-15.1,0.4-30.1,3.2-44.4,8.1c-29.5,8.7-52.7,31.7-61.6,61.2
		c-2.4,8.2,2.4,16.8,10.7,19.2c1.4,0.4,2.8,0.6,4.3,0.6l0,0c11.8-0.5,23.5,2.5,33.6,8.6c8.7,6.3,14.4,15.9,15.8,26.6h232.5
		c1.4-10.6,7.1-20.3,15.8-26.6c10.1-6.1,21.8-9.1,33.6-8.6c8.6-0.1,15.5-7.1,15.4-15.7C430.7,288.5,430.5,287.1,430.1,285.8z"/>
</g>
</svg>
