<?xml version="1.0" encoding="utf-8"?>
<!-- Generator: Adobe Illustrator 25.1.0, SVG Export Plug-In . SVG Version: 6.00 Build 0)  -->
<svg version="1.1" id="Layer_1" xmlns="http://www.w3.org/2000/svg" xmlns:xlink="http://www.w3.org/1999/xlink" x="0px" y="0px"
	 viewBox="0 0 500 500" style="enable-background:new 0 0 500 500;" xml:space="preserve">
<style type="text/css">
	.st0{fill:#FFFFFF;}
</style>
<g transform="translate(0 0)">
	<path class="st0" d="M461.8,49.5c0-8.5-2.1-16.8-6.1-24.2c-7.8-13.8-21.7-23.1-37.5-24.9c-5.4-0.5-10.9-0.6-16.3-0.4H91.2
		c-1.5,0-3.1,0-4.6,0C70.8,0.8,56.1,9.1,47.3,22.3c-5.8,9.5-8.6,20.6-8,31.8v391.5c-0.6,10.5,1.8,21,6.9,30.3
		c8.2,13.6,22.5,22.5,38.3,23.9c2.1,0.2,4.3,0.2,6.5,0.2H414c26.5-1,47.5-22.7,47.8-49.2c0-4.6,0-9.3,0-13.9V64.7
		C461.8,59.6,461.8,54.6,461.8,49.5z M239.3,99.6v141.8c-0.2,3.1-2.9,5.4-6,5.2c-0.7-0.1-1.5-0.3-2.1-0.6
		c-9.8-5.6-19.5-11.3-29.2-16.9l-14.8-8.6c-2.5-1.4-4.9-2.8-7.4-4.3c-1.6-0.9-4.1-3.2-6-2.8c-2.2,0.8-4.2,2-6,3.4l-7.2,4.2
		l-14.5,8.4c-9.6,5.6-19.2,11.1-28.8,16.7c-2.8,1.4-6.2,0.3-7.6-2.5c-0.3-0.7-0.5-1.4-0.6-2.1V88c0-0.4,0-0.8,0-1.2
		c-0.3-3.7-0.1-7.4,0.6-11c0.7-2.2,1.9-4.3,3.5-5.9c0.2-0.3,0.5-0.6,0.7-0.8c0.6-0.6,1.3-1.1,2-1.5c0.3-0.2,0.6-0.4,1-0.5
		c5.5-2.2,11.5-2.9,17.4-2.1h6.8h69.9c4.2,0,8.4,0,12.7,0c7,0.1,13,4.9,14.9,11.6c0.5,0.9,0.7,1.8,0.6,2.8
		C239,85.8,239.3,92.6,239.3,99.6z"/>
</g>
</svg>
