<?xml version="1.0" encoding="utf-8"?>
<!-- Generator: Adobe Illustrator 25.1.0, SVG Export Plug-In . SVG Version: 6.00 Build 0)  -->
<svg version="1.1" id="Layer_1" xmlns="http://www.w3.org/2000/svg" xmlns:xlink="http://www.w3.org/1999/xlink" x="0px" y="0px"
	 viewBox="0 0 500 500" style="enable-background:new 0 0 500 500;" xml:space="preserve">
<style type="text/css">
	.st0{fill:#FFFFFF;}
</style>
<g>
	<path class="st0" d="M494.1,382.6c-5.9-53.2-11.7-106.4-17.6-159.6c-6.6-59.6-13.3-119.2-20-178.8c-1.8-16-10-23.4-26.2-23.4
		c-39.9,0-79.9,0-119.8,0c-80.6,0-161.2,0-241.8,0c-15,0-23.6,8-25.2,22.8c-2.6,24-5.4,48-8.1,72c-4.1,37-8.2,74-12.3,111
		c-3.7,33.8-7.5,67.6-11.3,101.4c-3.7,33.4-7.6,66.9-11.1,100.3c-0.6,5.4-0.5,11.2,0.6,16.5c4.6,21,22,34.2,44.6,34.2
		c67.9,0.1,135.8,0,203.6,0c67.5,0,135,0,202.6,0c4.1,0,8.3,0,12.3-0.8c23.8-4.8,37.7-25.9,34.6-52
		C497.3,411.8,495.7,397.2,494.1,382.6z M364.4,173.5l0,0.6c-0.1,5.7-0.2,11.5-0.5,17.2c-3.3,50.2-43.9,94.5-93.4,102.7
		c-65.2,10.8-124.2-31.6-133.8-97c-1.4-9.7-1.5-19.8-1.1-29.8l0,0v-56.7h45.6v56.7l0,0c0,4.6,0,9.2,0,13.8
		c0.2,38.8,30.4,68.9,68.8,68.9c38.5,0,68.5-30.2,68.7-69.1c0-2.3,0-4.6,0-6.9l0,0v-57.3l45.6-0.6V173.5z"/>
</g>
</svg>
