<svg xmlns="http://www.w3.org/2000/svg" width="32.705" height="26.626" viewBox="0 0 32.705 26.626" style="opacity:.8">
  <g id="Fotograf_Ekle" data-name="Fotograf Ekle" transform="translate(1002.946 -307.781)">
    <path id="Path_439" data-name="Path 439" d="M-973.843,307.781h-25.5a3.6,3.6,0,0,0-3.6,3.6V330.8a3.6,3.6,0,0,0,3.6,3.6h25.5a3.6,3.6,0,0,0,3.6-3.6v-19.42A3.6,3.6,0,0,0-973.843,307.781Zm1.082,22.575a1.53,1.53,0,0,1-1.53,1.53h-24.6a1.53,1.53,0,0,1-1.53-1.53V311.832a1.53,1.53,0,0,1,1.53-1.53h24.6a1.53,1.53,0,0,1,1.53,1.53Z" transform="translate(0 0)" fill="#666"/>
    <path id="Path_440" data-name="Path 440" d="M-948.911,379.521a1.233,1.233,0,0,0-1.817.032l-1.875,2.471-5-5.454a1.184,1.184,0,0,0-1.657,0l-8.578,9.5c-.493.546-.008,1.311.831,1.311h22.777c.809,0,1.29-.726.838-1.266Z" transform="translate(-30.965 -58.064)" fill="#666"/>
    <circle id="Ellipse_19" data-name="Ellipse 19" cx="1.996" cy="1.996" r="1.996" transform="translate(-980.065 312.981)" fill="#666"/>
  </g>
</svg>
